{
    "PLAYERCONFIG": {
        "PLAYERGROUPS": {
            "1": {
                "CHAR": "G",
                "SHORTDESC": "[GKSHORTDESC]",
                "SHORTCODE": "[GKSHORTCODE]",
                "LONGDESC": "[GOALKEEPER]"
            },
            "2": {
                "CHAR": "D",
                "SHORTDESC": "[DEFSHORTDESC]",
                "SHORTCODE": "[DEFSHORTCODE]",
                "LONGDESC": "[DEFENDER]"
            },
            "3": {
                "CHAR": "M",
                "SHORTDESC": "[MIDSHORTDESC]",
                "SHORTCODE": "[MIDSHORTCODE]",
                "LONGDESC": "[MIDFIELDER]"
            },
            "4": {
                "CHAR": "S",
                "SHORTDESC": "[STRSHORTDESC]",
                "SHORTCODE": "[STRSHORTCODE]",
                "LONGDESC": "[STRIKER]"
            }
        },    
        "SCORES": {
            "LASTYEARCOLS": {
                "VALUE": "pos_assists",
                "POINTS": "pos_assists",
                "GOALS": "pos_assists",
                "ASSISTS": "pos_assists",
                "SAVEDPEN": "pos_assists",
                "REDCARD": "pos_assists",
                "SUBBED": "pos_assists",
                "CLEANSHEET": "pos_assists",
                "MISSEDPEN": "pos_assists",
                "YELLOWCARD": "pos_assists",
                "CONCEED": "pos_assists",
                "STARTINGXI": "pos_assists"
            },
            "CONFIG": {
                "CLEANSHEETTIME": 75
            },
            "SCORECATEGORIES": {
                "AC": [
                    "0",
                    "1",
                    "2",
                    "3"
                ],
                "XI": [
                    "0",
                    "1",
                    "2",
                    "3"
                ],
                "DB": [
                    "0",
                    "1",
                    "2",
                    "3"
                ],
                "KC": [
                    "0",
                    "1",
                    "2",
                    "3"
                ],
                "GS": [
                    "0",
                    "1",
                    "2",
                    "3"
                ],
                "YC": [
                    "0",
                    "1",
                    "2",
                    "3"
                ],
                "PM": [
                    "0"
                ],
                "PC": [
                    "0",
                    "1"
                ],
                "SA": [
                    "0",
                    "1",
                    "2",
                    "3"
                ],
                "OG": [
                    "0",
                    "1",
                    "2",
                    "3"
                ],
                "WB": [
                    "0",
                    "1",
                    "2",
                    "3"
                ],
                "RC": [
                    "0",
                    "1",
                    "2",
                    "3"
                ],
                "PS": [
                    "0"
                ],
                "GC": [
                    "0",
                    "1"
                ]
            }
        }
    }   
} 