<?xml version="1.0" encoding="utf-8"?>
<!-- Generator: Adobe Illustrator 16.0.4, SVG Export Plug-In . SVG Version: 6.00 Build 0)  -->
<!DOCTYPE svg PUBLIC "-//W3C//DTD SVG 1.1//EN" "http://www.w3.org/Graphics/SVG/1.1/DTD/svg11.dtd">
<svg version="1.1" id="Layer_1" xmlns="http://www.w3.org/2000/svg" xmlns:xlink="http://www.w3.org/1999/xlink" x="0px" y="0px"
	 width="38px" height="38px" viewBox="0 0 38 38" enable-background="new 0 0 38 38" xml:space="preserve">
<g>
	<defs>
		<circle id="SVGID_1_" cx="19" cy="19" r="19"/>
	</defs>
	<clipPath id="SVGID_2_">
		<use xlink:href="#SVGID_1_"  overflow="visible"/>
	</clipPath>
	<g clip-path="url(#SVGID_2_)">
		<g>
			<defs>
				<rect id="SVGID_3_" x="-7.704" y="-2.354" width="49.984" height="40.953"/>
			</defs>
			<clipPath id="SVGID_4_">
				<use xlink:href="#SVGID_3_"  overflow="visible"/>
			</clipPath>
			
				<linearGradient id="SVGID_5_" gradientUnits="userSpaceOnUse" x1="-13.8467" y1="47.0566" x2="-13.0928" y2="47.0566" gradientTransform="matrix(0 -54.2986 -54.2986 0 2572.4375 -713.2812)">
				<stop  offset="0" style="stop-color:#F1F1F1"/>
				<stop  offset="1" style="stop-color:#CFCFCF"/>
			</linearGradient>
			<rect x="-7.704" y="-2.354" clip-path="url(#SVGID_4_)" fill="url(#SVGID_5_)" width="49.984" height="40.953"/>
		</g>
		<g>
			<defs>
				<rect id="SVGID_6_" x="-8.666" y="-5.846" width="57.583" height="45.508"/>
			</defs>
			<clipPath id="SVGID_7_">
				<use xlink:href="#SVGID_6_"  overflow="visible"/>
			</clipPath>
			<g opacity="0.83" clip-path="url(#SVGID_7_)">
				<g>
					<defs>
						<rect id="SVGID_8_" x="-8.5" y="-4.271" width="57.105" height="9.834"/>
					</defs>
					<clipPath id="SVGID_9_">
						<use xlink:href="#SVGID_8_"  overflow="visible"/>
					</clipPath>
					<g clip-path="url(#SVGID_9_)">
						<defs>
							<polygon id="SVGID_10_" points="-8.5,5.562 43.911,5.562 48.605,5.562 48.605,-4.271 -8.5,-4.271 							"/>
						</defs>
						<clipPath id="SVGID_11_">
							<use xlink:href="#SVGID_10_"  overflow="visible"/>
						</clipPath>
						
							<linearGradient id="SVGID_12_" gradientUnits="userSpaceOnUse" x1="-13.9224" y1="46.9961" x2="-13.0859" y2="46.9961" gradientTransform="matrix(68.2607 0 0 -68.2607 941.875 3208.625)">
							<stop  offset="0" style="stop-color:#FBFBFB"/>
							<stop  offset="0.1413" style="stop-color:#FDFDFD"/>
							<stop  offset="1" style="stop-color:#FFFFFF"/>
						</linearGradient>
						<rect x="-8.5" y="-4.271" clip-path="url(#SVGID_11_)" fill="url(#SVGID_12_)" width="57.105" height="9.833"/>
					</g>
				</g>
			</g>
			<path clip-path="url(#SVGID_7_)" fill="#FFFFFF" d="M-5.997,37.947h52.54v-5.869c-8.646-0.006-17.382-0.006-26.192-0.006
				c-8.864,0-17.649,0-26.348,0.006V37.947z"/>
		</g>
		<g>
			<defs>
				<rect id="SVGID_13_" x="-8.361" y="32.877" width="0.925" height="5.373"/>
			</defs>
			<clipPath id="SVGID_14_">
				<use xlink:href="#SVGID_13_"  overflow="visible"/>
			</clipPath>
			
				<linearGradient id="SVGID_15_" gradientUnits="userSpaceOnUse" x1="-12.8481" y1="46.2852" x2="-12.0942" y2="46.2852" gradientTransform="matrix(0 -7.1267 -7.1267 0 321.9648 -53.3164)">
				<stop  offset="0" style="stop-color:#EAEAEA"/>
				<stop  offset="0.004" style="stop-color:#EAEAEA"/>
				<stop  offset="0.4724" style="stop-color:#FFFFFF"/>
				<stop  offset="0.8462" style="stop-color:#FFFFFF"/>
				<stop  offset="1" style="stop-color:#FFFFFF"/>
			</linearGradient>
			<rect x="-8.361" y="32.877" clip-path="url(#SVGID_14_)" fill="url(#SVGID_15_)" width="0.925" height="5.373"/>
		</g>
	</g>
</g>
<g>
	<path fill="#B2BAA6" d="M19,1c9.925,0,18,8.075,18,18c0,9.925-8.075,18-18,18C9.075,37,1,28.925,1,19C1,9.075,9.075,1,19,1 M19,0
		C8.506,0,0,8.506,0,19c0,10.493,8.506,19,19,19c10.493,0,19-8.507,19-19C38,8.506,29.493,0,19,0L19,0z"/>
</g>
<g>
	<path d="M14.09,25.635c-0.422,0-0.853-0.041-1.293-0.123c-0.439-0.082-0.815-0.197-1.127-0.344l4.51-6.436l-4.317-6.27
		c0.347-0.146,0.788-0.266,1.319-0.358c0.532-0.091,0.99-0.138,1.375-0.138c0.531,0,1.022,0.096,1.471,0.289
		c0.449,0.192,0.811,0.519,1.086,0.976l1.897,3.053l2.035-3.245c0.257-0.421,0.587-0.72,0.99-0.894
		c0.402-0.174,0.844-0.261,1.32-0.261c0.365,0,0.787,0.037,1.265,0.11c0.477,0.073,0.87,0.183,1.183,0.33l-4.455,6.6l4.345,6.214
		c-0.349,0.146-0.76,0.266-1.238,0.357c-0.476,0.092-0.952,0.139-1.43,0.139c-0.696,0-1.251-0.088-1.663-0.262
		s-0.747-0.473-1.004-0.895l-1.925-3.107l-1.98,3.246c-0.239,0.365-0.541,0.627-0.908,0.783
		C15.18,25.555,14.695,25.635,14.09,25.635z"/>
</g>
</svg>
