{
    "MANAGERCONFIG": {
        "MANAGER": {
            "VALIDSTATUS": [
                "TMVNOK",
                "TMVYOK"
            ],
            "INVALIDSTATUS": [
                "TMPNOPAY",
                "TMPNEWBI"
            ],            
            "MAXIMUMEMAILS": 1,
            "PASSWORDSALT": "orTIDzN8ltsjIhXn3uuf",
            "MINIMUMAGE": 18,
            "ONLINEPERIOD": 10,
            "VALIDTITLES": {
                "Sir": {
                    "ORDER": 7,
                    "SEX": "M"
                },
                "Lady": {
                    "ORDER": 6,
                    "SEX": "F"
                },
                "Ms": {
                    "ORDER": 3,
                    "SEX": "F"
                },
                "Miss": {
                    "ORDER": 4,
                    "SEX": "F"
                },
                "Mr": {
                    "ORDER": 1,
                    "SEX": "M"
                },
                "Lord": {
                    "ORDER": 5,
                    "SEX": "M"
                },
                "Mrs": {
                    "ORDER": 2,
                    "SEX": "F"
                }
            }
        }
    }
}
