{
    "SITECONFIG": {

        "DEFAULTPAGES": {
            "LOGGEDIN": "TEAM-LIST",
            "LOGGEDOUT": "SELECT-TEAM",
            "NOTEAMPIN": "MY-TEAM/LASTREG",
            "HAVENOTEAM": "SELECT-TEAM"
        },
    
        "PAGELIST": {
            "LEAGUE": {
                "TITLE": "[LEAGUE]",
                "TAXONOMY": "TEAMPIN",
                "ONERROR": "TEAM-LIST",
                "CONTENT": {
                    "1" : []
                }
            },
            "LEAGUE-JOIN": {
                "TITLE": "[JOINLEAGUE]",
                "TAXONOMY": "TEAMPIN",
                "ONERROR": "TEAM-LIST",
                "CONTENT": {
                    "1" : []
                }
            },
            "INVALID-LOGGEDIN": {
                "TITLE": "[ERRORPAGE]",
                "REDIRECT": "LOG-IN"
            },
            "MY-TEAM": {
                "TITLE": "[MYTEAM] - [LONGGAMENAME]",
                "TAXONOMY": "HAVETEAM",
                "ONERROR": "TEAM-LIST",
                "CONTENT": {
                    "2" : ["MAIN_NAV","MYTEAM_NAV","SECOND_NAV"],                
                    "3" : ["TEAM-DETAILS","PITCH-VIEW"]
                }
            },
            "PLAYER-STATS": {
                "TITLE": "[PLAYERSTATS]",
                "TAXONOMY": "",
                "CONTENT": {
                    "1" : []
                }
            },
            "CLUB-STATS": {
                "TAXONOMY": "",
                "CONTENT": {
                    "1" : []
                }
            },
            "MATCH-FACTS": {
                "TITLE": "[MATCHFACTS]",
                "TAXONOMY": "",
                "CONTENT": {
                    "1" : []
                }
            },
            "FIXTURES": {
                "TITLE": "[FIXTURES]",
                "TAXONOMY": "",
                "CONTENT": {
                    "1" : ["FIXTURE-LIST"]
                }
            },
            "SELECT-TEAM": {
                "TITLE": "[SELECTNEWTEAM] - [LONGGAMENAME]",
                "DEVICEDETECT": 0,
                "TAXONOMY": "!LOGGEDIN",
                "ONERROR": "ADD-TEAM",                
                "CONTENT": {
                    "2" : ["MAIN_NAV"],                                
                    "3" : ["PITCH-VIEW"],
                    "4" : ["PLAYER-LIST"],
                    "5" : ["SELECT-PLAYER-LIST"],
                    "6" : ["FORMATIONS-BUTTONS"]
                }                
            },
            "ADD-TEAM": {
                "TITLE": "[SELECTNEWTEAM] - [LONGGAMENAME]",
                "DEVICEDETECT": 0,
                "TAXONOMY": "LOGGEDIN",
                "ONERROR": "SELECT-TEAM",                
                "CONTENT": {
                    "3" : ["SELECT-PLAYER-LIST","NEW-TEAM-FORM"],
                    "4" : ["PLAYER-GROUPS"],
                    "5" : ["TEAM-NAMES","PITCH-VIEW"]
                }
            },            
            "GROUP-STATS": {
                "TITLE": "[GROUPSTATS]",
                "TAXONOMY": "",
                "CONTENT": {
                    "1" : []
                }
            },
            "GET-TEAM-LIST": {
                "TITLE": "[TEAMLIST]",
                "TAXONOMY": "HAVETEAM",
                "ONERROR": "SELECT-TEAM",
                "CONTENT": {
                    "1" : ["TEAM-LIST"]
                }
            },            
            "TEAM-LIST": {
                "TITLE": "[TEAMLIST]",
                "TAXONOMY": "HAVETEAM",
                "ONERROR": "SELECT-TEAM",
                "CONTENT": {
                    "2" : ["MAIN_NAV","SECOND_NAV"],
                    "3" : ["TEAM-LIST"],
                    "10" : ["FOOT_NAV1","FOOT_NAV2","FOOT_NAV3","FOOT_NAV4"]     
                }
            },
            "TRANSFER": {
                "TITLE": "[MAKETRANSFERS] - [LONGGAMENAME]",
                "TAXONOMY": "",
                "CONTENT": {
                    "2" : ["SELECT-PLAYER-LIST","CHANGE-TEAM-FORM"],
                    "3" : ["PITCH-VIEW"]
                }
            },
            "MOST-PICKED": {
                "TITLE": "[MOSTPICKED]",
                "TAXONOMY": "",
                "CONTENT": {
                    "2" : ["MOST-PICKED"]
                }

            },

            "LOG-IN": {
                "TITLE": "[LOGIN] - [LONGGAMENAME]",
                "DEVICEDETECT": 1,
                "TAXONOMY": "!LOGGEDIN",
                "ONERROR": "TEAM-LIST",                
                "CONTENT": {
                    "2" : ["MAIN_NAV","SECOND_NAV"],                
                    "3" : ["LOG-IN-FORM"],
                    "10" : ["FOOT_NAV1","FOOT_NAV2","FOOT_NAV3","FOOT_NAV4"]                    
                }

            },

            "API-LOG-IN": {
                "TITLE": "[LOGIN] - [LONGGAMENAME]",
                "DEVICEDETECT": 1,
                "TAXONOMY": "!LOGGEDIN",
                "ONERROR": "TEAM-LIST",                
                "CONTENT": {
                    "1" : ["API-LOG-IN"]
                }

            },
            
            "LOG-OUT": {
                "TITLE": "[LOGOUT] - [LONGGAMENAME]",
                "DEVICEDETECT": 1,
                "TAXONOMY": "LOGGEDIN",
                "ONERROR": "HOME",                
                "CONTENT": {
                    "1" : ["LOG-OUT"]
                }

            },            
            "LEAGUE-NEW": {
                "TITLE": "[NEWLEAGUE]",
                "TAXONOMY": "TEAMPIN",
                "ONERROR": "TEAM-LIST",
                "CONTENT": {
                    "2" : ["NEW-LEAGUE"]
                }

            },
            "INVALID-HAVETEAM": {
                "TITLE": "[ERRORPAGE]",
                "TAXONOMY": "",
                "REDIRECT": "SELECT-TEAM"

            },
            "LEAGUE-RESTART": {
                "TITLE": "[RESTARTLEAGUE]",
                "TAXONOMY": "TEAMPIN",
                "ONERROR": "TEAM-LIST",
                "CONTENT": {
                    "2" : ["RESTART-LEAGUES"]
                }

            },
            "TEAM-PAYMENT": {
                "TITLE": "[TEAMPAYMENT]",
                "TAXONOMY": "MANAGERPIN",
                "ONERROR": "TEAM-LIST",
                "CONTENT": {
                    "2" : ["PAYMENT-FORM"]
                }
            },
            "LEAGUE-PAYMENT": {
                "TITLE": "[LEAGUEPAYMENT]",
                "TAXONOMY": "MANAGERPIN",
                "ONERROR": "TEAM-LIST",
                "CONTENT": {
                    "2" : ["PAYMENT-FORM"]
                }
            },
            "LEAGUE-VIEW": {
                "TITLE": "[VIEWLEAGUE]",
                "TAXONOMY": "",
                "CONTENT": {
                    "2" : ["LEAGUE-TABLE"]
                }

            },
            "CONTINUE-JOURNEY": {
                "TITLE": "[ERRORPAGE]",
                "TAXONOMY": "",
                "REDIRECT": "CONTINUE-JOURNEY"
            },
            "GET-PLAYERLIST": {
                "TAXONOMY": "JSON",
                "CONTENT": {
                    "1" : ["SELECT-PLAYER-LIST"]
                }
            },            
            "GET-FORMATIONS": {
                "TAXONOMY": "JSON",
                "CONTENT": {
                    "1" : ["FORMATION-LIST"]
                }
            }
        },
        "PAGEPARTS": {
            "MAIN_NAV": {
                "TAXONOMY" : "",
                "FUNCTION" : ["GAME","NAVIGATION","MAIN_NAV"],
                "TEMPLATE" : "mainnav"
            },
            "SECOND_NAV": {
                "TAXONOMY" : "",
                "FUNCTION" : ["GAME","NAVIGATION","SECOND_NAV"],
                "TEMPLATE" : "secondnav"
            },
            "MYTEAM_NAV": {
                "TAXONOMY" : "",
                "FUNCTION" : ["GAME","NAVIGATION","MYTEAM_NAV"],
                "TEMPLATE" : "myteamnav"
            },            
            "FOOT_NAV1": {
                "TAXONOMY" : "",
                "FUNCTION" : ["GAME","NAVIGATION","FOOT_NAV1"],
                "TEMPLATE" : "footnav"
            }, 
            "FOOT_NAV2": {
                "TAXONOMY" : "",
                "FUNCTION" : ["GAME","NAVIGATION","FOOT_NAV2"],
                "TEMPLATE" : "footnav"
            },
            "FOOT_NAV3": {
                "TAXONOMY" : "",
                "FUNCTION" : ["GAME","NAVIGATION","FOOT_NAV3"],
                "TEMPLATE" : "footnav"
            },
            "FOOT_NAV4": {
                "TAXONOMY" : "",
                "FUNCTION" : ["GAME","NAVIGATION","FOOT_NAV4"],
                "TEMPLATE" : "footnav"
            },                                       
            "SELECT-PLAYER-LIST": {
                "TAXONOMY" : "",
                "FUNCTION" : ["PLAYER","LIST","THISYRSTATS","LASTYRSTATS"],
                "COLUMNS"  : ["AC","KC","SCORELASTYR","KC","STATUS","CATEGORY","TEAM","SA","GC","OG","XI","AC","NAME","VALUE","GROUP","SCORE","GS","YC","RC","PC","PM","PS"],
                "TEMPLATE" : "playerlist"
            },
            "PLAYER-LIST": {
                "TAXONOMY" : "",
                "FUNCTION" : ["PLAYER","LIST"],
                "TEMPLATE" : "playerlist"
            },
            "FIXTURE-LIST": {
                "TAXONOMY" : "",
                "FUNCTION" : ["STATS","PLAYERFIXTURE"],
                "TEMPLATE" : "fixturelist"
            },             
            "PLAYER-GROUPS": {
                "TAXONOMY" : "",
                "FUNCTION" : ["PLAYER","GROUPS"],
                "TEMPLATE" : "playergroupslist"
            },
            "TEAM-NAMES": {
                "TAXONOMY" : "",
                "FUNCTION" : ["PLAYER","TEAMS","TEAMNAME"],
                "TEMPLATE" : "playerteams"
            },
            "INFO-CENTRE": {
                "TAXONOMY" : "",
                "FUNCTION" : ["GAME","HELP-PAGES"],
                "TEMPLATE" : "playerlist"
            },
            "FORMATIONS-BUTTONS": {
                "TAXONOMY" : "",
                "FUNCTION" : ["GAME","FORMATIONS"],
                "TEMPLATE" : "formationlist"
            },
            "LEAGUE-TABLE": {
                "TAXONOMY" : "",
                "FUNCTION" : ["LEAGUE","TABLE"],
                "TEMPLATE" : "playerlist"
            },
            "LEAGUE-RESTART": {
                "TAXONOMY" : "TEAMPIN",
                "FUNCTION" : ["LEAGUE","RESTART"],
                "TEMPLATE" : "playerlist"
            },
            "LEAGUE-NEW": {
                "TAXONOMY" : "TEAMPIN",
                "FUNCTION" : ["LEAGUE","NEW"],
                "TEMPLATE" : "playerlist"
            },
            "LEAGUE-JOIN" : {
                "TAXONOMY" : "TEAMPIN",
                "FUNCTION" : ["LEAGUE","JOIN"],
                "TEMPLATE" : "playerlist"
            },
            "LOG-IN-FORM": {
                "TAXONOMY" : "LOGGEDOUT",
                "FUNCTION" : ["MANAGER","LOGINFORM","EMAIL"],
                "TEMPLATE" : "login"
            },
            "API-LOG-IN": {
                "TAXONOMY" : "LOGGEDOUT",
                "FUNCTION" : ["MANAGER","LOGIN","EMAIL"]
            },            
            "LOG-OUT": {
                "TAXONOMY" : "LOGGEDIN",
                "FUNCTION" : ["MANAGER","LOGOUT"],
                "TEMPLATE" : "login"
            },
            "PITCH-VIEW": {
                "TAXONOMY" : "TEAMPIN",
                "FUNCTION" : ["TEAM","PITCH"],
                "TEMPLATE" : "teampitch"
            },
            "SELECT-TEAM-FORM": {
                "TAXONOMY" : "",
                "FUNCTION" : ["TEAM","FORM","SELECT"],
                "TEMPLATE" : "teamform"
            },
            "SELECT-TEAM-HEADER": {
                "TAXONOMY" : "",
                "FUNCTION" : ["TEAM","HEADER","SELECT"],
                "TEMPLATE" : "selectteamheader"
            },
            "VIEW-TEAM-HEADER": {
                "TAXONOMY" : "",
                "FUNCTION" : ["TEAM","HEADER","VIEW"],
                "TEMPLATE" : "viewteamheader"
            },
            "NEW-TEAM-FORM": {
                "TAXONOMY" : "MANAGERPIN",
                "FUNCTION" : ["TEAM","FORM","ADD"],
                "TEMPLATE" : "teamform"
            },
            "TRANSFER-FORM": {
                "TAXONOMY" : "TEAMPIN",
                "FUNCTION" : ["TEAM","FORM","CHANGE"],
                "TEMPLATE" : "teamform"
            },
            "TEAM-LIST": {
                "TAXONOMY" : "HAVETEAM",
                "FUNCTION" : ["TEAM","LIST"],
                "TEMPLATE" : "teamlist"
            },
            "TEAM-DETAILS" : {
                "TAXONOMY" : "TEAMPIN",
                "FUNCTION" : ["TEAM","DETAILS"],
                "TEMPLATE" : "playerlist"
            },
            "MOST-PICKED-PAGE": {
                "TAXONOMY" : "",
                "FUNCTION" : ["STATS","MOSTPICKED"],
                "TEMPLATE" : "most_picked_page"
            },
            "MOST-PICKED-UNIT": {
                "TAXONOMY" : "",
                "FUNCTION" : ["STATS","MOSTPICKED"],
                "TEMPLATE" : "most_picked_unit"
            },
            "GROUP-STATS": {
                "TAXONOMY" : "",
                "FUNCTION" : ["STATS","GROUP"],
                "TEMPLATE" : "group_stats"
            },
            "MATCH-FACTS": {
                "TAXONOMY" : "",
                "FUNCTION" : ["STATS","MATCHFACTS"],
                "TEMPLATE" : "match_facts"
            },
            "CLUB-STATS" : {
                "TAXONOMY" : "",
                "FUNCTION" : ["STATS","CLUB"],
                "TEMPLATE" : "club_stats"
            },
            "PLAYER-STATS" : {
                "TAXONOMY" : "",
                "FUNCTION" : ["STATS","PLAYER"],
                "TEMPLATE" : "player_stats"
            },
            "CORALAD1" : {
                "TAXONOMY" : "!CORALACCOUNT,MANAGERPIN,!NOBETADS",
                "FUNCTION" : ["COPY","CORALAD1"],
                "TEMPLATE" : "copy_ad"
            }
        },
        "JOURNEYS": {
            "LOG-IN": {
                "LOGGEDIN,HAVETEAMS" : "MAIN",
                "DEFAULT" : "SELECT-TEAM"                
            },
            "LOG-OUT": {
                "LOGGEDIN,HAVETEAMS" : "MAIN",
                "DEFAULT" : "HOME"                
            },            
            "SELECT-TEAM": {
                "NEWBIE" : "REGISTER",
                "TEAMPIN,HAVETEAMCREDIT" : "USE-TEAM-CREDIT",
                "TEAMPIN" : "TEAM-PAYMENT",                
                "DEFAULT" : "TEAM-LIST"                
            },
            "ADD-TEAM": {
                "NEWBIE" : "REGISTER",
                "TEAMPIN,HAVETEAMCREDIT" : "USE-TEAM-CREDIT",
                "TEAMPIN" : "TEAM-PAYMENT",                
                "DEFAULT" : "TEAM-LIST"                
            },            
            "REGISTER": {
                "NEWBIE" : "REGISTER",
                "TEAMPIN,HAVETEAMCREDIT" : "USE-TEAM-CREDIT",
                "TEAMPIN" : "TEAM-PAYMENT",  
                "HAVENOTEAM" : "SELECT-TEAM",
                "DEFAULT" : "MAIN"                
            },
            "TEAM-PAYMENT": {
                "TEAMOK,SUPERXOPEN" : "SUPERX",
                "TEAMOK,PRIVATELEAGUESOPEN" : "PRIVATE-LEAGUE",
                "TEAMOK" : "MAIN",
                "TEAMPIN,HAVETEAMCREDIT" : "USE-TEAM-CREDIT",             
                "TEAMPIN" : "TEAM-PAYMENT",                             
                "HAVETEAMS" : "MAIN",                             
                "DEFAULT" : "SELECT-TEAM"
            },
            "USE-TEAM-CREDIT": {
                "TEAMOK,SUPERXOPEN" : "SUPERX",
                "TEAMOK,PRIVATELEAGUESOPEN" : "PRIVATE-LEAGUE",
                "TEAMOK" : "MAIN",
                "TEAMPIN,HAVETEAMCREDIT" : "USE-TEAM-CREDIT",             
                "TEAMPIN" : "TEAM-PAYMENT",                             
                "DEFAULT" : "SELECT-TEAM"
            },            
            "PUBLIC-LEAGUE": {
                "TEAMOK" : "MAIN",
                "DEFAULT" : "TEAM-PAYMENT"
            }
        },

        "NAVIGATION": {
            "MAIN_NAV": {
                "LINKS": {
                    "1": {
                        "TITLE": "[SELECT-TEAM]",
                        "NAME": "SELECTTEAM",
                        "TAXONOMY": "!LOGGEDIN",
                        "URL": "/select-team"                
                    },
                    "2": {
                        "TITLE": "[MYTEAM]",
                        "NAME": "MYTEAM",
                        "TAXONOMY": "LOGGEDIN",
                        "URL": "/my-team"
                    },
                    "3": {
                        "TITLE": "[MYLEAGUES]",
                        "NAME": "MYLEAGUES",
                        "TAXONOMY": "LOGGEDIN",
                        "URL": "/league"
                    },
                    "4": {
                        "TITLE": "[TEAMLIST]",
                        "NAME": "TEAMLIST",
                        "TAXONOMY": "LOGGEDIN",
                        "URL": "/team-list"
                    },
                    "5": {
                        "TITLE": "[STATS]",
                        "NAME": "STATS",
                        "URL": "/player-stats"
                    },
                    "6": {
                        "TITLE": "[LEADERBOARDS]",
                        "NAME": "LEADERBOARDS",
                        "TAXONOMY": "LOGGEDIN",
                        "URL": "/leaderboards"
                    },
                    "7": {
                        "TITLE": "[ACCOUNT]",
                        "NAME": "ACCOUNT",
                        "TAXONOMY": "LOGGEDIN",
                        "URL": "/my-details"
                    },
                    "8": {
                        "TITLE": "[LIVESCORING]",
                        "NAME": "LIVESCORING",
                        "TAXONOMY": "LOGGEDIN",
                        "URL": "/live"
                    }                    
                }                                                            
            },
            "SECOND_NAV": {
                "LINKS": {
                    "1": {
                        "TITLE": "[OFFICE]",
                        "NAME": "OFFICE",
                        "TAXONOMY": "LOGGEDIN",
                        "URL": "/office"
                    },   
                    "2": {
                        "TITLE": "[LOGOUT]",
                        "NAME": "LOGOUT",
                        "TAXONOMY": "LOGGEDIN",
                        "URL": "/log-out"
                    },
                    "3": {
                        "TITLE": "[HELP]",
                        "NAME": "HELP",
                        "TAXONOMY": "!LOGGEDIN",
                        "URL": "/help"
                    } ,                   
                    "4": {
                        "TITLE": "[HOME]",
                        "NAME": "HOME",
                        "TAXONOMY": "!LOGGEDIN",
                        "URL": "/home"
                    },   
                    "5": {
                        "TITLE": "[LOGIN]",
                        "NAME": "LOGIN",
                        "TAXONOMY": "!LOGGEDIN",
                        "URL": "/log-in"
                    }                                                       
                }
            },
            "MYTEAM_NAV": {
                "LINKS": {
                    "1": {
                        "TITLE": "[TRANSFERS]",
                        "NAME": "TRANSFERS",
                        "TAXONOMY": "TEAMPIN",
                        "URL": "/transfers"
                    },   
                    "2": {
                        "TITLE": "[MYSTATS]",
                        "NAME": "MYSTATS",
                        "TAXONOMY": "TEAMPIN",
                        "URL": "/team-stats"
                    },
                    "3": {
                        "TITLE": "[TRANSFERHISTORY]",
                        "NAME": "TRANSFERHISTORY",
                        "TAXONOMY": "TEAMPIN",
                        "URL": "/transfer-history"
                    } ,                   
                    "4": {
                        "TITLE": "[TEAMPERFORMANCE]",
                        "NAME": "TEAMPERFORMANCE",
                        "TAXONOMY": "TEAMPIN",
                        "URL": "/team-performance"
                    }                                                       
                }
            },            
                       
            "FOOT_NAV4": {
                "LINKS": {
                    "1": {
                        "TITLE": "[CONTACTUS]",
                        "NAME": "CONTACTUS",
                        "URL": "/copy/contactus"
                    }
                }
            },
            "FOOT_NAV1": {
                "LINKS": {
                    "1": {
                        "TITLE": "[PICKNEWTEAM]",
                        "NAME": "PICKNEWTEAM",
                        "URL": "/add-team",
                        "TAXONOMY": "LOGGEDIN"
                    },
                    "2": {
                        "TITLE": "[PICKATEAM]",
                        "NAME": "PICKATEAM",
                        "URL": "/select-team",
                        "TAXONOMY": "HAVENOTEAM"
                    },
                    "3": {
                        "TITLE": "[TANDC]",
                        "NAME": "TERMS",
                        "URL": "/copy/terms"
                    }
                },
                "STYLE": {
                    "CLASS": "navstyle3",
                    "SITEMAP": 2
                }
            },
            "FOOT_NAV3": {
                "LINKS": {
                    "1": {
                        "TITLE": "[SITEMAP]",
                        "NAME": "SITEMAP",
                        "URL": "/sitemap"
                    },
                    "2": {
                        "TITLE": "[PLAYERLISTPDF]",
                        "NAME": "PLAYERLISTPDF",
                        "URL": "/pdf/playerlist"
                    }
                },
                "STYLE": {
                    "CLASS": "navstyle3",
                    "SITEMAP": 4
                }
            },
            "FOOT_NAV2": {
                "LINKS": {
                    "1": {
                        "TITLE": "[HOWTOPLAY]",
                        "NAME": "HOWTOPLAY",
                        "URL": "/copy/how-to-play"
                    },
                    "2": {
                        "TITLE": "[PRIZES]",
                        "NAME": "PRIZES",
                        "URL": "/copy/prizes"
                    }
                },
                "STYLE": {
                    "CLASS": "navstyle3",
                    "SITEMAP": 3
                }
            }

        },
            
        "SOCIAL_MEDIA": {
            "TWITTER": {
                "MYTEAM": {
                    "MESSAGE": "[SHARETEAMFB]"
                },
                "MYLEAGUE": {
                    "MESSAGE": "[SHARELEAGUEFB]"
                }
            },
            "FACEBOOK": {
                "MYTEAM": {
                    "MESSAGE": "[SHARETEAMFB]"
                },
                "MYLEAGUE": {
                    "MESSAGE": "[SHARELEAGUEFB]"
                }
            },
            "GOOGLE": {
                "MYTEAM": {
                    "MESSAGE": "[SHARELEAGUEFB]"
                },
                "MYLEAGUE": {
                    "MESSAGE": "[SHARELEAGUEFB]"
                }
            }
        }
    }
}